…
```r
bird_calls <- call_data
```

Refining the columns we want to analyze

```r
bird_calls <- bird_calls %>% 
  select(begin_time_s, end_time_s, low_freq_hz, high_freq_hz, sound_category) 

bird_calls
```

```
## # A tibble: 5,196 x 5
##    begin_time_s end_time_s low_freq_hz high_freq_hz sound_category
##           <dbl>      <dbl>       <dbl>        <dbl> <chr>         
##  1        0           1.71       2986.        5696. Bird          
##  2        0.335       1.83       5752.       15119. Other animal  
##  3        0.346       1.79          0         3574. Buzz          
##  4        6.85        8.72       4652        13639. Other animal  
##  5        7.52       14.9        2909.        5677. Bird          
##  6       14.1        16.2        4863.       13216. Other animal  
##  7       18.4        23.6        2597.        5677. Bird          
##  8       20.1        21.9        5958        13427. Other animal  
##  9       26.7        29.0        3489        14273. Other animal  
## 10       33.6        36.2        4969.       13110. Other animal  
## # ... with 5,186 more rows
```
…
All Animals included

```r
bird_call_clean <- bird_calls %>% 
  gather(low_freq_hz, high_freq_hz, key = "type", value = "frequency") %>% 
  mutate(duration = end_time_s - begin_time_s) %>% 
  mutate(animal_type = recode(sound_category, Buzz = "Insect")) #renames the default variable so the data is more clear
  

bird_call_clean
```

```
## # A tibble: 10,392 x 7
##    begin_time_s end_time_s sound_category type  frequency duration
##           <dbl>      <dbl> <chr>          <chr>     <dbl>    <dbl>
##  1        0           1.71 Bird           low_~     2986.     1.71
##  2        0.335       1.83 Other animal   low_~     5752.     1.49
##  3        0.346       1.79 Buzz           low_~        0      1.44
##  4        6.85        8.72 Other animal   low_~     4652      1.87
##  5        7.52       14.9  Bird           low_~     2909.     7.42
##  6       14.1        16.2  Other animal   low_~     4863.     2.10
##  7       18.4        23.6  Bird           low_~     2597.     5.14
##  8       20.1        21.9  Other animal   low_~     5958      1.84
##  9       26.7        29.0  Other animal   low_~     3489      2.38
## 10       33.6        36.2  Other animal   low_~     4969.     2.58
## # ... with 10,382 more rows, and 1 more variable: animal_type <chr>
```
…
