…
```r
bird_calls <- call_data
```

Refining the columns we want to analyze

```r
bird_calls <- bird_calls %>% 
  select(begin_time_s, end_time_s, low_freq_hz, high_freq_hz, sound_category) 

bird_calls
```

```
## # A tibble: 5,196 x 5
##    begin_time_s end_time_s low_freq_hz high_freq_hz sound_category
##           <dbl>      <dbl>       <dbl>        <dbl> <chr>         
##  1        0           1.71       2986.        5696. Bird          
##  2        0.335       1.83       5752.       15119. Other animal  
##  3        0.346       1.79          0         3574. Buzz          
##  4        6.85        8.72       4652        13639. Other animal  
##  5        7.52       14.9        2909.        5677. Bird          
##  6       14.1        16.2        4863.       13216. Other animal  
##  7       18.4        23.6        2597.        5677. Bird          
##  8       20.1        21.9        5958        13427. Other animal  
##  9       26.7        29.0        3489        14273. Other animal  
## 10       33.6        36.2        4969.       13110. Other animal  
## # ... with 5,186 more rows
```
## Clean Data

All Animals included

```r
bird_call_clean <- bird_calls %>% 
  gather(low_freq_hz, high_freq_hz, key = "type", value = "frequency") %>% 
  mutate(duration = end_time_s - begin_time_s)
  

bird_call_clean
```

```
## # A tibble: 10,392 x 6
##    begin_time_s end_time_s sound_category type        frequency duration
##           <dbl>      <dbl> <chr>          <chr>           <dbl>    <dbl>
##  1        0           1.71 Bird           low_freq_hz     2986.     1.71
##  2        0.335       1.83 Other animal   low_freq_hz     5752.     1.49
##  3        0.346       1.79 Buzz           low_freq_hz        0      1.44
##  4        6.85        8.72 Other animal   low_freq_hz     4652      1.87
##  5        7.52       14.9  Bird           low_freq_hz     2909.     7.42
##  6       14.1        16.2  Other animal   low_freq_hz     4863.     2.10
##  7       18.4        23.6  Bird           low_freq_hz     2597.     5.14
##  8       20.1        21.9  Other animal   low_freq_hz     5958      1.84
##  9       26.7        29.0  Other animal   low_freq_hz     3489      2.38
## 10       33.6        36.2  Other animal   low_freq_hz     4969.     2.58
## # ... with 10,382 more rows
```
Only Birds

```r
bird_only <- bird_call_clean %>% 
  filter(sound_category == "Bird") 

bird_only
```

```
## # A tibble: 5,984 x 6
##    begin_time_s end_time_s sound_category type        frequency duration
##           <dbl>      <dbl> <chr>          <chr>           <dbl>    <dbl>
##  1         0          1.71 Bird           low_freq_hz     2986.    1.71 
##  2         7.52      14.9  Bird           low_freq_hz     2909.    7.42 
##  3        18.4       23.6  Bird           low_freq_hz     2597.    5.14 
##  4        33.8       36.5  Bird           low_freq_hz     3183.    2.72 
##  5        40.5       54.9  Bird           low_freq_hz     3967.   14.4  
##  6        42.5       43.5  Bird           low_freq_hz     1191.    0.988
##  7        43.9       50.1  Bird           low_freq_hz     3097.    6.15 
##  8        65.4       66.2  Bird           low_freq_hz     2494.    0.793
##  9        80.4       81.3  Bird           low_freq_hz     3011.    0.874
## 10        92.5       98.5  Bird           low_freq_hz     2701.    6.07 
## # ... with 5,974 more rows
```
…
